<?xml version="1.0" encoding="utf-8"?>
<!-- Generator: Adobe Illustrator 16.0.3, SVG Export Plug-In . SVG Version: 6.00 Build 0)  -->
<!DOCTYPE svg PUBLIC "-//W3C//DTD SVG 1.1//EN" "http://www.w3.org/Graphics/SVG/1.1/DTD/svg11.dtd">
<svg version="1.1" id="Capa_2" xmlns="http://www.w3.org/2000/svg" xmlns:xlink="http://www.w3.org/1999/xlink" x="0px" y="0px"
	 width="96px" height="108px" viewBox="0 0 96 108" enable-background="new 0 0 96 108" xml:space="preserve">
<path fill="#FFFFFF" d="M94.103,98.786h-4.163V38.351c0-2.813-2.288-5.102-5.102-5.102h-9.303c-2.813,0-5.101,2.289-5.101,5.102
	v60.436H59.865V65.732c0-2.813-2.287-5.102-5.101-5.102H45.46c-2.813,0-5.101,2.289-5.101,5.102v33.054H29.791V81.668
	c0-2.813-2.289-5.102-5.101-5.102h-9.304c-2.813,0-5.101,2.288-5.101,5.102v17.118H5.897C4.85,98.786,4,99.635,4,100.684
	c0,1.048,0.849,1.897,1.897,1.897h88.205c1.048,0,1.897-0.85,1.897-1.897C96,99.635,95.15,98.786,94.103,98.786 M14.08,98.786
	V81.668c0-0.721,0.586-1.307,1.306-1.307h9.303c0.721,0,1.307,0.586,1.307,1.307v17.118H14.08z M44.154,98.786V65.732
	c0-0.719,0.586-1.305,1.306-1.305h9.303c0.72,0,1.306,0.586,1.306,1.305v33.054H44.154z M74.229,98.786V38.351
	c0-0.719,0.586-1.306,1.306-1.306h9.303c0.722,0,1.307,0.586,1.307,1.306v60.436H74.229z"/>
<path fill="#FFFFFF" d="M22.169,58.254c0.486,0,0.972-0.185,1.342-0.556l32.773-32.772L63.358,32c0.742,0.741,1.942,0.741,2.685,0
	l20.102-20.101v6.416c0,1.047,0.85,1.897,1.898,1.897c1.047,0,1.897-0.85,1.897-1.897V7.507c0-0.031-0.003-0.062-0.005-0.092
	c0.025-0.518-0.156-1.045-0.551-1.44c-0.396-0.396-0.922-0.578-1.44-0.551c-0.03-0.002-0.062-0.005-0.092-0.005H76.371
	c-1.048,0-1.897,0.85-1.897,1.897c0,1.049,0.85,1.898,1.897,1.898h7.09L64.7,27.975L57.627,20.9
	c-0.356-0.356-0.84-0.557-1.343-0.557c-0.504,0-0.985,0.2-1.342,0.557L20.827,55.016c-0.741,0.74-0.741,1.942,0,2.684
	C21.198,58.069,21.685,58.254,22.169,58.254"/>
</svg>
